useR2022 tidymodels workshop - Model Tuning
…
Manual grid - create grid

This is a type of space-filling design.

It tends to do much better than random grids and is (usually) more efficient than regular grids.

set.seed(2)
grid <- 
  elevators_wflow %>% 
  extract_parameter_set_dials() %>% 
  grid_latin_hypercube(size = 25)

grid
#> # A tibble: 25 × 2
#>        penalty mixture
#>          <dbl>   <dbl>
#>  1 0.00781       0.271
#>  2 0.752         0.535
#>  3 0.000000404   0.924
#>  4 0.000557      0.299
#>  5 0.0108        0.821
#>  6 0.00000207    0.549
#>  7 0.243         0.210
#>  8 0.0890        0.862
#>  9 0.00204       0.785
#> 10 0.00000667    0.715
#> # … with 15 more rows
…
Manual grid - create grid

We will stick to a manual grid since glmnet can calculate multiple penalty values at once

set.seed(2)
grid <- 
  elevators_wflow %>% 
  extract_parameter_set_dials() %>% 
  grid_regular(levels = c(mixture = 10, penalty = 50))

grid
#> # A tibble: 500 × 2
#>     penalty mixture
#>       <dbl>   <dbl>
#>  1 1   e-10    0.05
#>  2 1.60e-10    0.05
#>  3 2.56e-10    0.05
#>  4 4.09e-10    0.05
#>  5 6.55e-10    0.05
#>  6 1.05e- 9    0.05
#>  7 1.68e- 9    0.05
#>  8 2.68e- 9    0.05
#>  9 4.29e- 9    0.05
#> 10 6.87e- 9    0.05
#> # … with 490 more rows
…
Returning results

collect_metrics(elevators_res)
#> # A tibble: 1,000 × 8
#>     penalty mixture .metric .estimator  mean     n std_err .config              
#>       <dbl>   <dbl> <chr>   <chr>      <dbl> <int>   <dbl> <chr>                
#>  1 1   e-10    0.05 rmse    standard   0.378    10 0.00408 Preprocessor1_Model0…
#>  2 1   e-10    0.05 rsq     standard   0.770    10 0.00488 Preprocessor1_Model0…
#>  3 1.60e-10    0.05 rmse    standard   0.378    10 0.00408 Preprocessor1_Model0…
#>  4 1.60e-10    0.05 rsq     standard   0.770    10 0.00488 Preprocessor1_Model0…
#>  5 2.56e-10    0.05 rmse    standard   0.378    10 0.00408 Preprocessor1_Model0…
#>  6 2.56e-10    0.05 rsq     standard   0.770    10 0.00488 Preprocessor1_Model0…
#>  7 4.09e-10    0.05 rmse    standard   0.378    10 0.00408 Preprocessor1_Model0…
#>  8 4.09e-10    0.05 rsq     standard   0.770    10 0.00488 Preprocessor1_Model0…
#>  9 6.55e-10    0.05 rmse    standard   0.378    10 0.00408 Preprocessor1_Model0…
#> 10 6.55e-10    0.05 rsq     standard   0.770    10 0.00488 Preprocessor1_Model0…
#> # … with 990 more rows

Returning results

collect_metrics(elevators_res, summarize = FALSE)
#> # A tibble: 10,000 × 7
#>    id          penalty mixture .metric .estimator .estimate .config             
#>    <chr>         <dbl>   <dbl> <chr>   <chr>          <dbl> <chr>               
#>  1 Fold01 0.0000000001    0.05 rmse    standard       0.374 Preprocessor1_Model…
#>  2 Fold01 0.0000000001    0.05 rsq     standard       0.777 Preprocessor1_Model…
#>  3 Fold02 0.0000000001    0.05 rmse    standard       0.399 Preprocessor1_Model…
#>  4 Fold02 0.0000000001    0.05 rsq     standard       0.745 Preprocessor1_Model…
#>  5 Fold03 0.0000000001    0.05 rmse    standard       0.356 Preprocessor1_Model…
#>  6 Fold03 0.0000000001    0.05 rsq     standard       0.795 Preprocessor1_Model…
#>  7 Fold04 0.0000000001    0.05 rmse    standard       0.370 Preprocessor1_Model…
#>  8 Fold04 0.0000000001    0.05 rsq     standard       0.769 Preprocessor1_Model…
#>  9 Fold05 0.0000000001    0.05 rmse    standard       0.381 Preprocessor1_Model…
#> 10 Fold05 0.0000000001    0.05 rsq     standard       0.772 Preprocessor1_Model…
#> # … with 9,990 more rows
…
